{
  "codes": [
    {
      "code": 101,
      "i18n": {
        "en": "Case closed by user",
        "de": "Sachverhalt durch user geschlossen."
      }
    },
    {
      "code": 201,
      "i18n": {
        "en": "Case closed by {{ MGMT }} (MGMT)",
        "de": "Sachverhalt durch {{ MGMT }} (MGMT) geschlossen"
      }
    }
  ]
}
